{
  "project_info": {
    "project_number": "50325124807",
    "firebase_url": "https://pruebacyxtera-4bc18.firebaseio.com",
    "project_id": "pruebacyxtera-4bc18",
    "storage_bucket": "pruebacyxtera-4bc18.appspot.com"
  },
  "client": [
    {
      "client_info": {
        "mobilesdk_app_id": "1:50325124807:android:6e2c14092d3122ad",
        "android_client_info": {
          "package_name": "com.aloadecuado.aloadecuado_dinner"
        }
      },
      "oauth_client": [
        {
          "client_id": "50325124807-ljt9pogea4106uhstr94plvemk6acf89.apps.googleusercontent.com",
          "client_type": 1,
          "android_info": {
            "package_name": "com.aloadecuado.aloadecuado_dinner",
            "certificate_hash": "9e7848f486dbe76fdcc62ce66957694075d66f4b"
          }
        },
        {
          "client_id": "50325124807-3814db88i7p8jspqm2chk432tmmvoefv.apps.googleusercontent.com",
          "client_type": 3
        }
      ],
      "api_key": [
        {
          "current_key": "AIzaSyCHfyONE213B5zHXoQ-M6WKm0ElegQaiCU"
        }
      ],
      "services": {
        "appinvite_service": {
          "other_platform_oauth_client": [
            {
              "client_id": "50325124807-3814db88i7p8jspqm2chk432tmmvoefv.apps.googleusercontent.com",
              "client_type": 3
            },
            {
              "client_id": "50325124807-8gael38bpbaddlv4brresdb5fl0k9jmt.apps.googleusercontent.com",
              "client_type": 2,
              "ios_info": {
                "bundle_id": "com.aloadecuado.aloadecuadoDinner"
              }
            }
          ]
        }
      }
    }
  ],
  "configuration_version": "1"
}